Goodreads 👍📚 Part 2: rvesting descriptions · Ángela Castillo-Gill
…
stop_words ✌🏿

Now we’ll get rid of stop words (using the dataset built into tidytext), and count word frequencies.

data("stop_words")

tidy_books <- descs_unnested %>%
  anti_join(stop_words, by = "word")

tidy_book_words <- tidy_books %>%
  count(word, sort = TRUE)

tidy_book_words

## # A tibble: 21,172 x 2
##    word         n
##    <chr>    <int>
##  1 world      981
##  2 story      767
##  3 life       765
##  4 book       666
##  5 history    499
##  6 time       479
##  7 war        454
##  8 people     429
##  9 author     406
## 10 american   404
## # ... with 21,162 more rows

The top words make sense. I do read a lot of books about life, stories, the world, history, time, and people. The book descriptions often begin with editorial praise, e.g.

From the New York Times best-selling author of…

So, it’s not surprising that words like “book” and “author” would make it into the top ten, as well.

We could also look at these aggregates by word stem.

tidy_book_word_stems <- tidy_books %>%
  count(word_stem, sort = TRUE)

tidy_book_word_stems

## # A tibble: 14,319 x 2
##    word_stem     n
##    <chr>     <int>
##  1 world      1001
##  2 stori       967
##  3 time        860
##  4 book        815
##  5 life        767
##  6 histori     509
##  7 author      495
##  8 war         488
##  9 american    486
## 10 live        475
## # ... with 14,309 more rows
…
I won’t go into the details here (for those, check out the Sentiment analysis with tidy data section of Julia and David’s book), but let’s take a look at the sentiments associated with the words from my read book descriptions. I’ll use the AFINN lexicon, which:

“…assigns words with a score that runs between -5 and 5, with negative scores indicating negative sentiment and positive scores indicating positive sentiment” (Silge & Robinson 2017, p.14)

It is important to note, however, that this is a very much a subset of the words used in the book descriptions, and that the “censored” data may have a disproportionate impact in one direction or another.

data(sentiments)

word_sentiments <- tidy_book_words %>%
  inner_join(get_sentiments("afinn"), by = "word")

word_sentiments

## # A tibble: 1,513 x 3
##    word         n score
##    <chr>    <int> <int>
##  1 war        454    -2
##  2 love       298     3
##  3 murder     234    -2
##  4 crime      221    -3
##  5 death      216    -2
##  6 true       202     2
##  7 powerful   181     2
##  8 dead       163    -3
##  9 winning    153     4
## 10 award      151     3
## # ... with 1,503 more rows
…
